{
  "type": "service_account",
  "project_id": "parkify-e052a",
  "private_key_id": "11e3c372cf2bebdd6678dde255763a01265a9989",
  "private_key": "-----BEGIN PRIVATE KEY-----\nMIIEvQIBADANBgkqhkiG9w0BAQEFAASCBKcwggSjAgEAAoIBAQCenAuU0RcLFG55\ndTlGjA+7/agpwTdmt9Zm3fBy5xUlM47wQ8henQo3P6jhmrPg5q4sxfeDmH8sxy6T\nswBnKcT9QC5SmDNjNn5VmVDXtLpwSqZ+sTOtiWnm/HKUgj+9GlQG4nWNNSOvD/FU\npeb00fX+2iMaIX1Bad1t/RRR4zFUT+zCLty8HxCJUQwnpkG+XWwrNhfNTEDE0z5X\na6KkezZXRmi5P/LK7cXXYvgTYI0JQlOsshMMJGlBFuGk20J531bVT/a+I6rUROIk\nNTMO8O5xe6OYzvkxeGqg8RpRoJy7gbHBgC81xZWfJ4ODdBlFx4px8F9Vr5pmSoIs\nVfz4BWXLAgMBAAECggEAHvW1uwQ/W73OvK2ZkwA2+AqQ3ymkf0vmMWkkDMG3mm3g\nely4yWMdAeDOvc7dSsqsd/fikxDazipJGLKJoxl/prF2+U9VRIn4Cgxlv906wT2J\nF1TOkhKvFdP0J7Hu8CIqAbgFmx0izIKvqEbD+MjdHDSHQowD75dTDium4j8XO24Z\ncvq7j1OJHCwHyJ2uV3if22JzFtPV/0UvvVccpfoAjHW6D8QH6Lm/4s+LVFvtH3vD\nUinyoNbunXECiDmPNYyQ8DddJbw+xH424UOloikvzW9OfLOZjw4035/m7x6cHsdx\npVch1gZZcK1902TW5SF/kOUgzVkkFg9UjaiPaIQupQKBgQDdkPvD1ExFR4zIoRxI\nVu9dzuClqj5E57awlDSJmssgaYyfwnzh0++js6uuxAFTLh2MOfkiTOFxDnGSbMfZ\nwAQ45CTGZW/nRjxj8PR6+2IVFDh1yK03YwCZlqWe74zfGrkQ4vvK7AWluLstgbTi\nl3xhZK8HeyYILSugItKzA8/lVwKBgQC3QlN0mR2J/pgwV2Rc8HX78yBBVTIMaUo9\nhmcOXqy0AxKd29q3dQ2rlC7p5WUPTYsAvkBVevr6boIhHgnqMx8Y1+r5VQ/thk8b\nXNtNOkY3nfpoasz9/6lbZQhSSeHOgprQJCcDdU0zWVyljkQV7qdHyCu/H+i/jkCP\neBC6/RemrQKBgCb+czC91kaDFyXgJOgeVLY/yI2fbqIV3bMqAi0Njx4/NT6QrgXY\nlN5MqrRxToJjJVQeh9gfi7WoAxjwCCQshRG2JTq9c3pShCJar8xNHa/0BRPFo6aR\nx/M/7hoQssw5GcT9Da9i5oOKBXc20qzmWD+TxrIcXE8oE/t05XwX+ai1AoGABXBR\ne79jkgndSGn/j4aPadfQWEAICThCvMq1WkbTB1CkB81Tk2hE7JesQMLPGgIqIu6C\niEbrFe2brRHwJ2Q3Awy9a4LrwxfeVyiNVaBqHxJwMRMiXFNvGkhIU/DfY7qaj5zT\nD5Y2oVSAnGU5fhEkI8w8CCMRTEYTgm6EyJfkUM0CgYEAosdRAqpXNhF5B3GME5su\nMiTko8KpjrUggpPc7gaRaIr/DkbJaJo06y5r6sf4UHy/7b3kONNUZBXfczZ3WcGd\nVBTf3JQ+qe+W7gTlC5qYJ72WsaKGiLLXJYMdK7pOhlbCmuaRUcZtN67kOaqruHsO\nMyHBFs3mUCLHznNwmVgBYqs=\n-----END PRIVATE KEY-----\n",
  "client_email": "firebase-adminsdk-kejam@parkify-e052a.iam.gserviceaccount.com",
  "client_id": "107098045076764819615",
  "auth_uri": "https://accounts.google.com/o/oauth2/auth",
  "token_uri": "https://oauth2.googleapis.com/token",
  "auth_provider_x509_cert_url": "https://www.googleapis.com/oauth2/v1/certs",
  "client_x509_cert_url": "https://www.googleapis.com/robot/v1/metadata/x509/firebase-adminsdk-kejam%40parkify-e052a.iam.gserviceaccount.com"
}
